Advanced ELAN manipulation and analysis
…
verbs_test %>% filter(is.na(lat)) %>% count(participant) %>% arrange(desc(n))

## # A tibble: 31 x 2
##    participant     n
##          <chr> <int>
##  1  IIB-M-1946    58
##  2  TFA-F-1934    46
##  3  APP-F-1957    39
##  4     unknown    25
##  5  AAZ-F-1940    20
##  6  KOM-F-1964    13
##  7  XXC-F-196X     8
##  8  NGK-F-1956     6
##  9      группа     6
## 10          S1     5
## # ... with 21 more rows
…
