Advanced ELAN manipulation and analysis
…
However, having some pieces of information in the filenames allows us to get few more metadata columns in this point:

corpus <- dir('corpus/', pattern = 'eaf$', full.names = TRUE) %>% map(read_eaf) %>% bind_rows()

# We assume the session name starts with a three letter ISO code
# If the system is entirely reliable, we can just take three first characters
corpus <- corpus %>% mutate(lang = str_extract(session_name, '.{3}')) %>%
  mutate(variety = str_extract(session_name, '(?<=.{3}_)[a-z]+(?=\\d)')) %>%
  mutate(rec_year = as.numeric(str_extract(session_name, '\\d{4}(?=\\d{4})'))) %>%
  mutate(gender = str_extract(participant, '(?<=-)(F|M)(?=-)'))

corpus %>% select(lang, variety, rec_year, gender, everything()) 

## # A tibble: 568 x 15
##     lang variety rec_year gender   token
##    <chr>   <chr>    <dbl>  <chr>   <chr>
##  1   kpv    izva     2014      F      ме
##  2   kpv    izva     2014      F       ,
##  3   kpv    izva     2014      F кӧнечнэ
##  4   kpv    izva     2014      F      же
##  5   kpv    izva     2014      F       ,
##  6   kpv    izva     2014      F     кык
##  7   kpv    izva     2014      F     лун
##  8   kpv    izva     2014      F    вӧлі
##  9   kpv    izva     2014      F       в
## 10   kpv    izva     2014      F    шоке
## # ... with 558 more rows, and 10 more variables: utterance <chr>,
## #   reference <chr>, participant <chr>, time_start <dbl>, time_end <dbl>,
## #   session_name <chr>, filename <chr>, word <chr>, after <chr>,
## #   before <chr>
…
read_custom_eaf('corpus/kpv_udo20120330SazinaJS-encounter.eaf')

## Joining, by = c("ref_id", "participant")

## Joining, by = c("participant", "orth_id")

## Joining, by = c("participant", "token_id")

## Joining, by = c("participant", "lemma_id")

## Joining, by = "time_slot_1"

## Joining, by = "time_slot_2"

## # A tibble: 239 x 8
##    token lemma   pos participant time_start time_end
##    <chr> <chr> <chr>       <chr>      <dbl>    <dbl>
##  1     И     и    CC  NTP-M-1986        170     3730
##  2  эшшӧ  эшшӧ     _  NTP-M-1986        170     3730
##  3  ӧтик  ӧтик   Num  NTP-M-1986        170     3730
##  4   тор   тор     N  NTP-M-1986        170     3730
##  5     ,     ,   CLB  NTP-M-1986        170     3730
##  6   мый   мый    CS  NTP-M-1986        170     3730
##  7 тэнад    тэ  Pron  NTP-M-1986        170     3730
##  8     ,     ,   CLB  NTP-M-1986        170     3730
##  9 тэныд    тэ  Pron  NTP-M-1986        170     3730
## 10   мам   мам     N  NTP-M-1986        170     3730
## # ... with 229 more rows, and 2 more variables: ref <chr>, orth <chr>
read_custom_eaf('corpus/kpv_izva20140330-1-fragment.eaf')

## Joining, by = c("ref_id", "participant")

## Joining, by = c("participant", "orth_id")

## Joining, by = c("participant", "token_id")

## Joining, by = c("participant", "lemma_id")

## Joining, by = "time_slot_1"

## Joining, by = "time_slot_2"

## # A tibble: 98 x 8
##      token lemma   pos participant time_start time_end
##      <chr> <lgl> <lgl>       <chr>      <dbl>    <dbl>
##  1      Ме    NA    NA  MVF-F-1984          0     6086
##  2       ,    NA    NA  MVF-F-1984          0     6086
##  3 кӧнечнэ    NA    NA  MVF-F-1984          0     6086
##  4      же    NA    NA  MVF-F-1984          0     6086
##  5       ,    NA    NA  MVF-F-1984          0     6086
##  6     кык    NA    NA  MVF-F-1984          0     6086
##  7     лун    NA    NA  MVF-F-1984          0     6086
##  8    вӧлі    NA    NA  MVF-F-1984          0     6086
##  9       в    NA    NA  MVF-F-1984          0     6086
## 10    шоке    NA    NA  MVF-F-1984          0     6086
## # ... with 88 more rows, and 2 more variables: ref <chr>, orth <chr>
…
